<?xml version="1.0" encoding="UTF-8" standalone="no"?>
<!-- Created with Inkscape (http://www.inkscape.org/) -->

<svg
   xmlns:dc="http://purl.org/dc/elements/1.1/"
   xmlns:cc="http://creativecommons.org/ns#"
   xmlns:rdf="http://www.w3.org/1999/02/22-rdf-syntax-ns#"
   xmlns:svg="http://www.w3.org/2000/svg"
   xmlns="http://www.w3.org/2000/svg"
   xmlns:sodipodi="http://sodipodi.sourceforge.net/DTD/sodipodi-0.dtd"
   xmlns:inkscape="http://www.inkscape.org/namespaces/inkscape"
   width="80.886909mm"
   height="80.886909mm"
   viewBox="0 0 80.886909 80.886909"
   version="1.1"
   id="svg6479"
   inkscape:version="0.92.0 r15299"
   sodipodi:docname="favicon.svg"
   inkscape:export-filename="C:\Users\Nuno\Documents\6Projectos\azoresdata\logo\justLogo.png"
   inkscape:export-xdpi="90"
   inkscape:export-ydpi="90">
  <defs
     id="defs6473">
    <filter
       style="color-interpolation-filters:sRGB"
       inkscape:label="Drop Shadow"
       id="filter5368-75">
      <feFlood
         flood-opacity="0.498039"
         flood-color="rgb(0,0,0)"
         result="flood"
         id="feFlood5358-76" />
      <feComposite
         in="flood"
         in2="SourceGraphic"
         operator="in"
         result="composite1"
         id="feComposite5360-6" />
      <feGaussianBlur
         in="composite1"
         stdDeviation="1"
         result="blur"
         id="feGaussianBlur5362-7" />
      <feOffset
         dx="0"
         dy="0"
         result="offset"
         id="feOffset5364-6" />
      <feComposite
         in="SourceGraphic"
         in2="offset"
         operator="over"
         result="composite2"
         id="feComposite5366-7" />
    </filter>
    <filter
       style="color-interpolation-filters:sRGB"
       inkscape:label="Drop Shadow"
       id="filter5380-6">
      <feFlood
         flood-opacity="0.498039"
         flood-color="rgb(0,0,0)"
         result="flood"
         id="feFlood5370-02" />
      <feComposite
         in="flood"
         in2="SourceGraphic"
         operator="in"
         result="composite1"
         id="feComposite5372-33" />
      <feGaussianBlur
         in="composite1"
         stdDeviation="1"
         result="blur"
         id="feGaussianBlur5374-0" />
      <feOffset
         dx="0"
         dy="0"
         result="offset"
         id="feOffset5376-1" />
      <feComposite
         in="SourceGraphic"
         in2="offset"
         operator="over"
         result="composite2"
         id="feComposite5378-05" />
    </filter>
    <filter
       style="color-interpolation-filters:sRGB"
       inkscape:label="Drop Shadow"
       id="filter5356-9">
      <feFlood
         flood-opacity="0.498039"
         flood-color="rgb(0,0,0)"
         result="flood"
         id="feFlood5346-32" />
      <feComposite
         in="flood"
         in2="SourceGraphic"
         operator="in"
         result="composite1"
         id="feComposite5348-7" />
      <feGaussianBlur
         in="composite1"
         stdDeviation="1"
         result="blur"
         id="feGaussianBlur5350-3" />
      <feOffset
         dx="0"
         dy="0"
         result="offset"
         id="feOffset5352-8" />
      <feComposite
         in="SourceGraphic"
         in2="offset"
         operator="over"
         result="composite2"
         id="feComposite5354-5" />
    </filter>
  </defs>
  <sodipodi:namedview
     id="base"
     pagecolor="#ffffff"
     bordercolor="#666666"
     borderopacity="1.0"
     inkscape:pageopacity="0.0"
     inkscape:pageshadow="2"
     inkscape:zoom="0.98994949"
     inkscape:cx="278.91925"
     inkscape:cy="121.48622"
     inkscape:document-units="mm"
     inkscape:current-layer="layer1"
     showgrid="false"
     inkscape:window-width="1366"
     inkscape:window-height="705"
     inkscape:window-x="-8"
     inkscape:window-y="-8"
     inkscape:window-maximized="1"
     fit-margin-top="0"
     fit-margin-left="0"
     fit-margin-right="0"
     fit-margin-bottom="0" />
  <metadata
     id="metadata6476">
    <rdf:RDF>
      <cc:Work
         rdf:about="">
        <dc:format>image/svg+xml</dc:format>
        <dc:type
           rdf:resource="http://purl.org/dc/dcmitype/StillImage" />
        <dc:title></dc:title>
      </cc:Work>
    </rdf:RDF>
  </metadata>
  <g
     inkscape:label="Layer 1"
     inkscape:groupmode="layer"
     id="layer1"
     transform="translate(-57.830357,-50.181545)">
    <rect
       y="50.181545"
       x="57.830357"
       height="80.886909"
       width="80.886909"
       id="rect6346"
       style="opacity:0.98000004;fill:none;fill-opacity:1;stroke:none;stroke-width:1;stroke-linecap:square;stroke-linejoin:miter;stroke-miterlimit:4;stroke-dasharray:none;stroke-opacity:0.99215686;paint-order:markers fill stroke" />
    <g
       inkscape:export-ydpi="90"
       inkscape:export-xdpi="90"
       id="g5987-1"
       transform="matrix(1.3875161,-0.61617844,0.61617844,1.3875161,-30.701839,64.265442)">
      <g
         id="g5866-7">
        <path
           inkscape:connector-curvature="0"
           id="path5183-6-3"
           d="m 77.243783,58.23038 0.66063,-18.72571 18.54705,-2.59984 z"
           style="opacity:1;fill:#f79d84;fill-opacity:1;fill-rule:evenodd;stroke:none;stroke-width:0.26458332px;stroke-linecap:butt;stroke-linejoin:miter;stroke-opacity:1" />
        <path
           style="fill:#f28477;fill-opacity:1;fill-rule:evenodd;stroke:none;stroke-width:0.26458332px;stroke-linecap:butt;stroke-linejoin:miter;stroke-opacity:1"
           d="m 77.904413,39.50467 8.943208,8.062933 9.60384,-10.662774 z"
           id="path5853-80"
           inkscape:connector-curvature="0" />
        <path
           inkscape:connector-curvature="0"
           id="path5175-8-8"
           d="m 55.810443,44.89682 8.88171,27.25489 -15.88662,-9.93498 z"
           style="opacity:1;fill:#59cd90;fill-opacity:1;fill-rule:evenodd;stroke:none;stroke-width:0.26458332px;stroke-linecap:butt;stroke-linejoin:miter;stroke-opacity:1" />
        <path
           inkscape:connector-curvature="0"
           id="path5177-2-4"
           d="m 58.851583,54.22903 5.84057,17.92268 18.55595,-2.60109 z"
           style="opacity:1;fill:#3fa7d6;fill-opacity:1;fill-rule:evenodd;stroke:none;stroke-width:0.26458332px;stroke-linecap:butt;stroke-linejoin:miter;stroke-opacity:1" />
        <g
           id="g6156-1">
          <path
             inkscape:connector-curvature="0"
             id="path5179-4-8"
             d="m 64.692153,72.15171 19.21658,-21.3268 -0.66064,18.72571 z"
             style="opacity:1;fill:#fac05e;fill-opacity:1;fill-rule:evenodd;stroke:none;stroke-width:0.26458332px;stroke-linecap:butt;stroke-linejoin:miter;stroke-opacity:1;filter:url(#filter5368-75)" />
          <path
             inkscape:connector-curvature="0"
             id="path5849-2"
             d="m 83.248102,69.55062 -8.94766,-8.062311 9.60829,-10.663399 z"
             style="fill:#f8b642;fill-opacity:1;fill-rule:evenodd;stroke:none;stroke-width:0.26458332px;stroke-linecap:butt;stroke-linejoin:miter;stroke-opacity:1" />
        </g>
        <path
           inkscape:connector-curvature="0"
           id="path5181-4-8"
           d="m 84.323273,40.94189 -1.07519,28.60873 12.54275,-13.92008 z"
           style="opacity:1;fill:#3fa7d6;fill-opacity:1;fill-rule:evenodd;stroke:none;stroke-width:0.26458332px;stroke-linecap:butt;stroke-linejoin:miter;stroke-opacity:1;filter:url(#filter5380-6)" />
        <path
           inkscape:connector-curvature="0"
           id="path5173-7-0"
           d="M 64.663753,72.10155 40.193186,56.89862 58.879973,54.27919 Z"
           style="opacity:1;fill:#ee6352;fill-opacity:1;fill-rule:evenodd;stroke:none;stroke-width:0.26458332px;stroke-linecap:butt;stroke-linejoin:miter;stroke-opacity:1;filter:url(#filter5356-9)" />
        <path
           style="fill:#ed5542;fill-opacity:1;fill-rule:evenodd;stroke:none;stroke-width:0.26458332px;stroke-linecap:butt;stroke-linejoin:miter;stroke-opacity:1"
           d="M 58.879972,54.279188 52.42847,64.500084 64.663753,72.10155 Z"
           id="path5847-3"
           inkscape:connector-curvature="0" />
        <path
           style="fill:#2b98c9;fill-opacity:1;fill-rule:evenodd;stroke:none;stroke-width:0.26458332px;stroke-linecap:butt;stroke-linejoin:miter;stroke-opacity:1"
           d="M 84.323271,40.941889 83.785677,55.246253 95.790831,55.63054 Z"
           id="path5851-0"
           inkscape:connector-curvature="0" />
      </g>
    </g>
  </g>
</svg>
